ITEM,USUARIO REGISTRA PAGO,NUMERO DE LIQUIDACIÓN,NUMERO DE COMPARENDO,NUMERO DE COMPARENDO SENSYS,NO RESOLUCIÓN,No. MANDAMIENTO COACTIVO,PLACA,TIPO DOCUMENTO,NUMERO DOCUMENTO,NOMBRES,FECHA DE REGISTRO,FECHA DE PAGO,FORMA DE PAGO,DESCRIPCIÓN TiFi,TIPO DE CIA,FECHA IMPUTACIÓN COMPARENDO,CODIGO DE INFRACCIÓN,VALOR DE LA INFRACCIÓN,VALOR PAGADO DE LA INFRACCIÓN,INTERESES,COSTAS PROCESALES,TOTAL PAGADO
58873,ddominguez,2015/30813,AT1F199241,ATCCS003_545A30D9_06500,/,/,VAT375,CEDULA DE CIUDADANIA,26418368,LEONOR PRADO DE LOSADA,19/08/2015,13/08/2015,EFECTIVO,CIA EXT. 25%,EXTERNA,11/5/14,C29,"$ 308,000 ","$ 173,250 ",$ 0 ,$ 0 ,"$ 173,250 "
58874,tangarita,2015/30814,08634001000006480246,ATMLS001_52B788A2_15600,/,/,TSW007,CEDULA DE CIUDADANIA,6463313,JULIAN OLAYA VALENCIA,19/08/2015,18/08/2015,EFECTIVO,CIA EXT. 50%,EXTERNA,12/23/13,C29,"$ 294,750 ","$ 110,531 ",$ 0 ,$ 0 ,"$ 110,531 "
58875,ddominguez,2015/30815,AT1F242662,ATMOS001_55C8C39A_03300,/,/,UVV254,CEDULA DE CIUDADANIA,72158433,GUILLERMO RAFAEL IMITOLA GALLARDO,19/08/2015,18/08/2015,EFECTIVO,CIA EXT. 50%,EXTERNA,8/10/15,C29,"$ 322,180 ","$ 120,818 ",$ 0 ,$ 0 ,"$ 120,818 "
58876,tangarita,2015/30816,08634001000006479428,ATSUS004_52B5E413_03400,/,/,TSW007,CEDULA DE CIUDADANIA,6463313,JULIAN OLAYA VALENCIA,19/08/2015,18/08/2015,EFECTIVO,CIA EXT. 50%,EXTERNA,12/21/13,C29,"$ 294,750 ","$ 110,531 ",$ 0 ,$ 0 ,"$ 110,531 "
58877,tangarita,2015/30817,08634001000006480017,ATCCS003_52B583D8_22500,/,/,TSW007,CEDULA DE CIUDADANIA,6463313,JULIAN OLAYA VALENCIA,19/08/2015,18/08/2015,EFECTIVO,CIA EXT. 50%,EXTERNA,12/21/13,C29,"$ 294,750 ","$ 110,531 ",$ 0 ,$ 0 ,"$ 110,531 "
58878,ddominguez,2015/30818,AT1F227400,ATSUS004_54CF9ECD_01300,/,/,BVO619,CEDULA DE CIUDADANIA,79436898,EFRAIN ANTONIO RICARDO RUIZ,19/08/2015,18/08/2015,EFECTIVO,CIA EXT. 50%,EXTERNA,2/2/15,C29,"$ 322,180 ","$ 120,818 ",$ 0 ,$ 0 ,"$ 120,818 "
58879,tangarita,2015/30819,AT1F196386,ATBAS005_543997FC_09800,/,/,KKO742,CEDULA DE CIUDADANIA,57463216,DIANA ISABEL JARAMILLO GELVEZ,19/08/2015,13/08/2015,EFECTIVO,CIA EXT. 50%,EXTERNA,10/11/14,C29,"$ 308,000 ","$ 115,500 ",$ 0 ,$ 0 ,"$ 115,500 "
58880,ddominguez,2015/30820,AT1F223706,ATBOS008_550452DA_05800,/,/,BQA334,CEDULA DE CIUDADANIA,9133514,IVAN ANTONIO CANO BADRAN,19/08/2015,18/08/2015,EFECTIVO,CIA EXT. 25%,EXTERNA,3/14/15,C29,"$ 322,180 ","$ 181,226 ",$ 0 ,$ 0 ,"$ 181,226 "
58881,tangarita,2015/30821,AT1F238170,ATBOS008_5598DE6A_02100,/,/,QHO876,CEDULA DE CIUDADANIA,17111503,ANDRES JOSE GOMEZ GARCIA,19/08/2015,18/08/2015,EFECTIVO,CIA EXT. 50%,EXTERNA,7/5/15,C29,"$ 322,180 ","$ 120,818 ",$ 0 ,$ 0 ,"$ 120,818 "
58882,tangarita,2015/30823,AT1F100416,ATSUS004_514FF4B9_37400,/,/,SDS779,CEDULA DE CIUDADANIA,12503573,HECTOR ORLANDO HERRERA MONTEJO,19/08/2015,14/08/2015,EFECTIVO,CIA EXT. 50%,EXTERNA,3/25/13,C29,"$ 294,750 ","$ 110,531 ",$ 0 ,$ 0 ,"$ 110,531 "
58883,ddominguez,2015/30824,AT1F240786,ATMLRS02_55911906_01300,/,/,UUW240,CEDULA DE CIUDADANIA,22430828,MARIA ELENA GOENAGA ALVAREZ,19/08/2015,18/08/2015,EFECTIVO,CIA EXT. 50%,EXTERNA,6/29/15,C29,"$ 322,180 ","$ 120,818 ",$ 0 ,$ 0 ,"$ 120,818 "
58884,ygarcia,2015/30825,AT1F213024,ATJAS006_54B2657B_02400,/,/,HVO221,CEDULA DE CIUDADANIA,17970428,JAIME GUILLERMO PLATA SUAREZ,19/08/2015,03/08/2015,EFECTIVO,CIA EXT. 50%,EXTERNA,1/11/15,C29,"$ 322,180 ","$ 120,818 ",$ 0 ,$ 0 ,"$ 120,818 "
58885,ygarcia,2015/30826,AT1F212585,ATJAS007_54B2664D_02300,/,/,HVO221,CEDULA DE CIUDADANIA,17970428,JAIME GUILLERMO PLATA SUAREZ,19/08/2015,03/08/2015,EFECTIVO,CIA EXT. 50%,EXTERNA,1/11/15,C29,"$ 322,180 ","$ 120,818 ",$ 0 ,$ 0 ,"$ 120,818 "
58886,tangarita,2015/30827,AM1F044489,ATMLRS02_50A008BC_03700,/,/,QHO115,CEDULA DE CIUDADANIA,8765510,GERMAN PLATA GUTIERREZ  ,19/08/2015,18/08/2015,EFECTIVO,CIA EXT. 25%,EXTERNA,11/11/12,C29,"$ 283,350 ","$ 159,384 ",$ 0 ,$ 0 ,"$ 159,384 "
58887,tangarita,2015/30828,AT1F242704,ATMOS001_55C9E15C_07500,/,/,HXL255,CEDULA DE CIUDADANIA,8677890,ROBINSON ANTONIO PADILLA BARRIOS,19/08/2015,18/08/2015,EFECTIVO,CIA EXT. 50%,EXTERNA,8/11/15,C29,"$ 322,180 ","$ 120,818 ",$ 0 ,$ 0 ,"$ 120,818 "
58888,tangarita,2015/30829,AT1F221085,ATMLS001_54F73300_00100,/,/,QGW275,CEDULA DE CIUDADANIA,72289703,ERNESTO MARIO BOOM RUIZ,19/08/2015,18/08/2015,EFECTIVO,CIA EXT. 50%,EXTERNA,3/4/15,C29,"$ 322,180 ","$ 120,818 ",$ 0 ,$ 0 ,"$ 120,818 "
58889,ddominguez,2015/30830,AT1F235478,ATMLS001_557A0BB7_03900,/,/,HJX119,CEDULA DE CIUDADANIA,72189703,EFRAIN ANTONIO OROZCO,19/08/2015,03/08/2015,EFECTIVO,CIA EXT. 50%,EXTERNA,6/11/15,C29,"$ 322,180 ","$ 120,818 ",$ 0 ,$ 0 ,"$ 120,818 "
58890,tangarita,2015/30831,AT1F196714,ATMLS001_5446594E_02800,/,/,QGW275,CEDULA DE CIUDADANIA,72289703,ERNESTO MARIO BOOM RUIZ,19/08/2015,18/08/2015,EFECTIVO,CIA EXT. 50%,EXTERNA,10/21/14,C29,"$ 308,000 ","$ 115,500 ",$ 0 ,$ 0 ,"$ 115,500 "
58891,ygarcia,2015/30832,AT1F242106,ATCCS003_55C880DA_06600,/,/,MXP992,CEDULA DE CIUDADANIA,9041542,JULIO MANUEL TAMARA PEREZ,19/08/2015,18/08/2015,EFECTIVO,CIA EXT. 50%,EXTERNA,8/10/15,C29,"$ 322,180 ","$ 120,818 ",$ 0 ,$ 0 ,"$ 120,818 "
58892,ddominguez,2015/30833,AT1F242539,ATMOS001_55C72F53_01700,/,/,KHX942,CEDULA DE CIUDADANIA,1140879081,PIERANGELA DAZA AMADOR,19/08/2015,18/08/2015,EFECTIVO,CIA EXT. 50%,EXTERNA,8/9/15,C29,"$ 322,180 ","$ 120,818 ",$ 0 ,$ 0 ,"$ 120,818 "
58893,tangarita,2015/30834,08634001000006116938,ATMLRS02_51FB76E4_01000,/,/,RBG791,CEDULA DE CIUDADANIA,1095797266,CAMILO PINZON MONTIEL,19/08/2015,18/08/2015,EFECTIVO,CIA EXT. 50%,EXTERNA,8/2/13,C29,"$ 294,750 ","$ 110,531 ",$ 0 ,$ 0 ,"$ 110,531 "
58894,ddominguez,2015/30835,AT1F150559,ATMLRS01_52DE5DE5_02800,/,/,UYZ469,CEDULA DE CIUDADANIA,8671189,EDUARDO MONARRIZ SALCEDO,19/08/2015,18/08/2015,EFECTIVO,CIA EXT. 50%,EXTERNA,1/21/14,D04,"$ 616,000 ","$ 231,000 ",$ 0 ,$ 0 ,"$ 231,000 "
58895,ddominguez,2015/30836,AT1F192629,ATSUS004_54154108_08600,/,/,BHK154,CEDULA DE CIUDADANIA,41422242,MARIA MAGDALENA CRUZ DE FLOREZ,19/08/2015,29/07/2015,EFECTIVO,CIA EXT. 50%,EXTERNA,9/14/14,C29,"$ 308,000 ","$ 115,500 ",$ 0 ,$ 0 ,"$ 115,500 "
58896,ddominguez,2015/30838,AT1F231549,ATSUS004_554AF449_01000,/,/,BHK154,CEDULA DE CIUDADANIA,41422242,MARIA MAGDALENA CRUZ DE FLOREZ,19/08/2015,29/07/2015,EFECTIVO,CIA EXT. 50%,EXTERNA,5/7/15,C29,"$ 322,180 ","$ 120,818 ",$ 0 ,$ 0 ,"$ 120,818 "
58897,ddominguez,2015/30839,AT1F112237,ATMLRS02_5190A64E_02300,/,/,UYM897,CEDULA DE CIUDADANIA,8769701,RAFAEL NAVARRO LOPEZ /,19/08/2015,18/08/2015,EFECTIVO,CIA EXT. 50%,EXTERNA,5/13/13,C29,"$ 294,750 ","$ 110,531 ",$ 0 ,$ 0 ,"$ 110,531 "
58898,ddominguez,2015/30840,AT1F117654,ATMLRS02_51B5C018_10600,/,/,UYM897,CEDULA DE CIUDADANIA,8769701,RAFAEL NAVARRO LOPEZ /,19/08/2015,18/08/2015,EFECTIVO,CIA EXT. 50%,EXTERNA,6/10/13,C29,"$ 294,750 ","$ 110,531 ",$ 0 ,$ 0 ,"$ 110,531 "
58899,ddominguez,2015/30841,AT1F241567,ATPOS002_55B90870_02100,/,/,ODS792,CEDULA DE CIUDADANIA,8753659,LUIS IGNACIO CONTRERAS MIRANDA,19/08/2015,11/08/2015,EFECTIVO,CIA EXT. 50%,EXTERNA,7/29/15,C29,"$ 322,180 ","$ 120,818 ",$ 0 ,$ 0 ,"$ 120,818 "
58900,wbarrospaez,2015/30842,AT1F210428,ATCCS003_54A916D3_28000,/,/,BJK238,CEDULA DE CIUDADANIA,1045675265,LEIBER MIGUEL PADILLA SALCEDO,19/08/2015,13/08/2015,EFECTIVO,CIA EXT. 50%,EXTERNA,1/4/15,C29,"$ 322,180 ","$ 120,818 ",$ 0 ,$ 0 ,"$ 120,818 "
58901,wbarrospaez,2015/30843,AT1F210633,ATPOS002_54A90E5C_01300,/,/,BJK238,CEDULA DE CIUDADANIA,1045675265,LEIBER MIGUEL PADILLA SALCEDO,19/08/2015,13/08/2015,EFECTIVO,CIA EXT. 50%,EXTERNA,1/4/15,C29,"$ 322,180 ","$ 120,818 ",$ 0 ,$ 0 ,"$ 120,818 "
58902,ddominguez,2015/30845,AT1F240316,ATSUS004_55AD0189_18100,/,/,CMT54B,CEDULA DE CIUDADANIA,39677066,YAQUELINE VERA NIETO,19/08/2015,18/08/2015,EFECTIVO,CIA EXT. 50%,EXTERNA,7/20/15,C29,"$ 322,180 ","$ 120,818 ",$ 0 ,$ 0 ,"$ 120,818 "
58903,tangarita,2015/30837,AT1F242633,ATMOS001_55C8AC25_01500,/,/,BTY611,CEDULA DE CIUDADANIA,77163516,LUIS ORTEGA RUIZ,19/08/2015,18/08/2015,EFECTIVO,CIA EXT. 50%,EXTERNA,8/10/15,C29,"$ 322,180 ","$ 120,818 ",$ 0 ,$ 0 ,"$ 120,818 "
58904,wbarrospaez,2015/30844,AT1F210734,ATSBS001_54A90BE6_04100,/,/,BJK238,CEDULA DE CIUDADANIA,1045675265,LEIBER MIGUEL PADILLA SALCEDO,19/08/2015,13/08/2015,EFECTIVO,CIA EXT. 50%,EXTERNA,1/4/15,C29,"$ 322,180 ","$ 120,818 ",$ 0 ,$ 0 ,"$ 120,818 "
58905,ddominguez,2015/30846,AT1F242259,ATMOS001_55C497E0_22200,/,/,IEO563,CEDULA DE CIUDADANIA,43117825,DIANA MELISA DUQUE,19/08/2015,19/08/2015,EFECTIVO,CIA EXT. 50%,EXTERNA,8/7/15,C29,"$ 322,180 ","$ 120,818 ",$ 0 ,$ 0 ,"$ 120,818 "
58906,tangarita,2015/30847,AT1F073215,ATBAS005_50CDB112_47100,/,/,CXC424,CEDULA DE CIUDADANIA,32857658,YADENYS ESTHER TORRES ACEVEDO,19/08/2015,18/08/2015,EFECTIVO,PAGO TOTAL,NINGUNO,12/16/12,C29,"$ 283,350 ","$ 283,350 ",$ 0 ,$ 0 ,"$ 283,350 "
58907,ddominguez,2015/30848,AT1F226122,ATMLS001_5522B0C1_03200,/,/,QGN004,CEDULA DE CIUDADANIA,85164014,JAIME DE JESUS ESCOBAR HERNANDEZ,19/08/2015,01/07/2015,EFECTIVO,CIA EXT. 50%,EXTERNA,4/6/15,C29,"$ 322,180 ","$ 120,818 ",$ 0 ,$ 0 ,"$ 120,818 "
58908,tangarita,2015/30849,AT1F242309,ATMOS001_55C4C8F7_12300,/,/,MHX862,CEDULA DE CIUDADANIA,6559251,OSCAR HUMBERTO SANCHEZ VELEZ,19/08/2015,18/08/2015,EFECTIVO,CIA EXT. 50%,EXTERNA,8/7/15,C29,"$ 322,180 ","$ 120,818 ",$ 0 ,$ 0 ,"$ 120,818 "
58909,tangarita,2015/30850,AT1F242383,ATMOS001_55C5DB8A_15200,/,/,MHX862,CEDULA DE CIUDADANIA,6559251,OSCAR HUMBERTO SANCHEZ VELEZ,19/08/2015,18/08/2015,EFECTIVO,CIA EXT. 50%,EXTERNA,8/8/15,C29,"$ 322,180 ","$ 120,818 ",$ 0 ,$ 0 ,"$ 120,818 "
58910,tangarita,2015/30851,AT1F241025,ATBAS005_55B5C4B0_12800,/,/,AMP62D,CEDULA DE CIUDADANIA,8645513,ORLANDO FABIAN SERJE CUENTAS,19/08/2015,08/08/2015,EFECTIVO,CIA EXT. 50%,EXTERNA,7/27/15,C29,"$ 322,180 ","$ 120,818 ",$ 0 ,$ 0 ,"$ 120,818 "
58911,ygarcia,2015/30852,AT1F211208,ATCCS003_54ACBD9E_53000,/,/,ELK909,CEDULA DE CIUDADANIA,8782703,GUIDO CESAR VELASCO MARTINEZ,19/08/2015,19/08/2015,EFECTIVO,CIA EXT. 25%,EXTERNA,1/7/15,C29,"$ 322,180 ","$ 181,226 ",$ 0 ,$ 0 ,"$ 181,226 "
58912,ygarcia,2015/30853,AT1F233854,ATMLRS02_55686FB1_01100,/,/,EUQ058,CEDULA DE CIUDADANIA,2858809,LUIS ANTONIO GOMEZ DIETES,19/08/2015,19/08/2015,EFECTIVO,CIA EXT. 50%,EXTERNA,5/29/15,C29,"$ 322,180 ","$ 120,818 ",$ 0 ,$ 0 ,"$ 120,818 "
58913,ddominguez,2015/30854,08634001000006134387,ATSUS004_526E054C_00800,/,/,MHW429,CEDULA DE CIUDADANIA,32774333,JACQUELINE TAPIA LOPEZ,19/08/2015,05/08/2015,EFECTIVO,CIA EXT. 25%,EXTERNA,10/28/13,C29,"$ 294,750 ","$ 165,797 ",$ 0 ,$ 0 ,"$ 165,797 "
58914,ddominguez,2015/30855,AT1F214680,ATMLS001_54C096BB_01500,/,/,ONB38C,CEDULA DE CIUDADANIA,74335700,FABIO NELSON SIERRA MENDOZA,19/08/2015,15/08/2015,EFECTIVO,CIA EXT. 25%,EXTERNA,1/22/15,C29,"$ 322,180 ","$ 181,226 ",$ 0 ,$ 0 ,"$ 181,226 "
58915,ygarcia,2015/30856,AT1F241754,ATMLS001_55BEB72E_05900,/,/,TFW78C,CEDULA DE CIUDADANIA,1067851375,EMERSON ARMARES MARTINEZ SOTO,19/08/2015,19/08/2015,EFECTIVO,CIA EXT. 50%,EXTERNA,8/3/15,C29,"$ 322,180 ","$ 120,818 ",$ 0 ,$ 0 ,"$ 120,818 "
58916,ygarcia,2015/30857,AT1F241590,ATBAS005_55BB8283_41600,/,/,SUA734,CEDULA DE CIUDADANIA,7330280,NESTOR ROA VARGAS,19/08/2015,19/08/2015,EFECTIVO,CIA EXT. 50%,EXTERNA,7/31/15,C29,"$ 322,180 ","$ 120,818 ",$ 0 ,$ 0 ,"$ 120,818 "
58917,tangarita,2015/30858,AT1F160251,ATMLS001_532206EF_03300,/,/,QHT055,CEDULA DE CIUDADANIA,22420388,FIDELIA DEL SOCORRO FLOREZ DE FERRER,19/08/2015,18/08/2015,EFECTIVO,CIA EXT. 50%,EXTERNA,3/13/14,C29,"$ 308,000 ","$ 115,500 ",$ 0 ,$ 0 ,"$ 115,500 "
58918,ygarcia,2015/30861,AT1F191614,ATSBS001_540BA6CB_00300,/,/,CWB957,CEDULA DE CIUDADANIA,13724226,EDUIN JAVIER PEÑA FIERRO,19/08/2015,14/08/2015,EFECTIVO,CIA EXT. 50%,EXTERNA,9/7/14,C29,"$ 308,000 ","$ 115,500 ",$ 0 ,$ 0 ,"$ 115,500 "
58919,ygarcia,2015/30862,AT1F232365,ATPOS002_55574FD4_20000,/,/,GKY11C,CEDULA DE CIUDADANIA,10966901,JOSE LUIS PEREZ SANCHEZ,19/08/2015,18/08/2015,EFECTIVO,CIA EXT. 50%,EXTERNA,5/16/15,C29,"$ 322,180 ","$ 120,818 ",$ 0 ,$ 0 ,"$ 120,818 "
58920,ygarcia,2015/30863,AT1F232622,ATSBS001_55574FFC_60800,/,/,GKY11C,CEDULA DE CIUDADANIA,10966901,JOSE LUIS PEREZ SANCHEZ,19/08/2015,18/08/2015,EFECTIVO,CIA EXT. 50%,EXTERNA,5/16/15,C29,"$ 322,180 ","$ 120,818 ",$ 0 ,$ 0 ,"$ 120,818 "
58921,ygarcia,2015/30864,AT1F241929,ATSRS009_55BCFFBA_06600,/,/,HZZ371,CEDULA DE CIUDADANIA,64541334,JUDITH DEL SOCORRO MERCADO TOVAR,19/08/2015,19/08/2015,EFECTIVO,CIA EXT. 50%,EXTERNA,8/1/15,C29,"$ 322,180 ","$ 120,818 ",$ 0 ,$ 0 ,"$ 120,818 "
58922,ygarcia,2015/30865,AT1F224147,ATCCS010_550D06CA_00700,/,/,IAS649,CEDULA DE CIUDADANIA,39355274,LUZ MARY HOYOS ZAPATA,19/08/2015,14/08/2015,EFECTIVO,CIA EXT. 50%,EXTERNA,3/21/15,C29,"$ 322,180 ","$ 120,818 ",$ 0 ,$ 0 ,"$ 120,818 "
58923,ygarcia,2015/30866,AT1F224121,ATSRS009_550D0B45_00900,/,/,IAS649,CEDULA DE CIUDADANIA,39355274,LUZ MARY HOYOS ZAPATA,19/08/2015,14/08/2015,EFECTIVO,CIA EXT. 50%,EXTERNA,3/21/15,C29,"$ 322,180 ","$ 120,818 ",$ 0 ,$ 0 ,"$ 120,818 "
58924,ygarcia,2015/30867,AT1F218174,ATMLRS02_54DDB9AC_03500,/,/,BYC402,CEDULA DE CIUDADANIA,7416130,CARLOS RAFAEL ARIZA ANDRADE,19/08/2015,19/08/2015,EFECTIVO,CIA EXT. 25%,EXTERNA,2/13/15,C29,"$ 322,180 ","$ 181,226 ",$ 0 ,$ 0 ,"$ 181,226 "
58925,ygarcia,2015/30868,AT1F240909,ATCCS010_55B1F363_01200,/,/,HIU665,CEDULA DE CIUDADANIA,7585977,JULIO GAMARRA DE LEON,19/08/2015,19/08/2015,EFECTIVO,CIA EXT. 50%,EXTERNA,7/24/15,C29,"$ 322,180 ","$ 120,818 ",$ 0 ,$ 0 ,"$ 120,818 "
58926,ygarcia,2015/30869,AT1F200114,ATSUS004_5462F67A_02000,/,/,ZIN135,CEDULA DE CIUDADANIA,72313512,WADITH ENRIQUE CABARCAS DONADO,19/08/2015,18/08/2015,EFECTIVO,CIA EXT. 50%,EXTERNA,11/12/14,C29,"$ 308,000 ","$ 115,500 ",$ 0 ,$ 0 ,"$ 115,500 "
58927,ygarcia,2015/30870,AT1F242695,ATMOS001_55C9DBC9_04500,/,/,UUW755,CEDULA DE CIUDADANIA,32878788,ALEXANDRA MARIA PEREZ SAAD,19/08/2015,19/08/2015,EFECTIVO,CIA EXT. 50%,EXTERNA,8/11/15,C29,"$ 322,180 ","$ 120,818 ",$ 0 ,$ 0 ,"$ 120,818 "
58928,ygarcia,2015/30871,AT1F242489,ATMOS001_55C632AB_23700,/,/,DHO421,CEDULA DE CIUDADANIA,8402243,RAMIRO GUERRA RICO,19/08/2015,19/08/2015,EFECTIVO,CIA EXT. 50%,EXTERNA,8/8/15,C29,"$ 322,180 ","$ 120,818 ",$ 0 ,$ 0 ,"$ 120,818 "
58929,ygarcia,2015/30872,AT1F237501,ATSRS009_559230DE_15000,/,/,IAG286,CEDULA DE CIUDADANIA,91467026,ORLANDO GIL VIDES,19/08/2015,19/08/2015,EFECTIVO,CIA EXT. 50%,EXTERNA,6/30/15,C29,"$ 322,180 ","$ 120,818 ",$ 0 ,$ 0 ,"$ 120,818 "
58930,ygarcia,2015/30873,AT1F243576,ATMOS001_55C626CE_17700,/,/,HTS875,CEDULA DE CIUDADANIA,45521029,INGRID MARIELA PADRON RUIZ,19/08/2015,19/08/2015,EFECTIVO,CIA EXT. 50%,EXTERNA,8/8/15,C29,"$ 322,180 ","$ 120,818 ",$ 0 ,$ 0 ,"$ 120,818 "
58931,ygarcia,2015/30874,AT1F175092,ATSUS004_5380D90F_05400,/,/,NDP292,CEDULA DE CIUDADANIA,63286536,MARIA GLORIA CAMACHO MORENO,19/08/2015,19/08/2015,EFECTIVO,CIA EXT. 50%,EXTERNA,5/24/14,C29,"$ 308,000 ","$ 115,500 ",$ 0 ,$ 0 ,"$ 115,500 "
58932,ygarcia,2015/30875,AT1F242415,ATMOS001_55C5E8E7_23600,/,/,HXK919,CEDULA DE CIUDADANIA,72138407,CARLOS ADRIAN SPARTACUS CHIRIVI GARCIA,19/08/2015,18/08/2015,EFECTIVO,CIA EXT. 50%,EXTERNA,8/8/15,C29,"$ 322,180 ","$ 120,818 ",$ 0 ,$ 0 ,"$ 120,818 "
58933,ddominguez,2015/30876,AT1F242147,ATMOS001_55C3833D_02300,/,/,UVX486,CEDULA DE CIUDADANIA,32895474,MARIA CLAUDIA VASQUEZ SANTIAGO,19/08/2015,19/08/2015,EFECTIVO,CIA EXT. 50%,EXTERNA,8/6/15,C29,"$ 322,180 ","$ 120,818 ",$ 0 ,$ 0 ,"$ 120,818 "
58934,tangarita,2015/30877,AT1F241385,ATSBS001_55BE1500_14400,/,/,GYG93C,CEDULA DE CIUDADANIA,57116539,ELIBETH ESTHER ANAYA PADILLA,19/08/2015,19/08/2015,EFECTIVO,CIA EXT. 50%,EXTERNA,8/2/15,C29,"$ 322,180 ","$ 120,818 ",$ 0 ,$ 0 ,"$ 120,818 "
58935,tangarita,2015/30878,AT1F241725,ATMLRS01_55C1A0CD_00300,/,/,MHX123,CEDULA DE CIUDADANIA,6573982,JUAN PABLO ARRIETA GUERRA,19/08/2015,19/08/2015,EFECTIVO,CIA EXT. 50%,EXTERNA,8/5/15,D04,"$ 644,360 ","$ 241,634 ",$ 0 ,$ 0 ,"$ 241,634 "
58936,ygarcia,2015/30879,AT1F074015,ATPOS002_50CE53E9_12500,/,/,FHI409,CEDULA DE CIUDADANIA,43087832,MARIA TERESITA MOLINA ESCALANTE,19/08/2015,14/08/2015,EFECTIVO,PAGO TOTAL,NINGUNO,12/16/12,C29,"$ 283,350 ","$ 283,350 ",$ 0 ,$ 0 ,"$ 283,350 "
58937,ygarcia,2015/30880,AT1F073375,ATSUS004_50CE4D48_18100,/,/,FHI409,CEDULA DE CIUDADANIA,43087832,MARIA TERESITA MOLINA ESCALANTE,19/08/2015,14/08/2015,EFECTIVO,PAGO TOTAL,NINGUNO,12/16/12,C29,"$ 283,350 ","$ 283,350 ",$ 0 ,$ 0 ,"$ 283,350 "
58938,ddominguez,2015/30881,AT1F228787,ATPOS011_55321713_04400,/,/,MOT084,CEDULA DE CIUDADANIA,45536933,SUSAN STRUSBERG CASTAÑEDA,19/08/2015,19/08/2015,EFECTIVO,CIA EXT. 50%,EXTERNA,4/18/15,C29,"$ 322,180 ","$ 120,818 ",$ 0 ,$ 0 ,"$ 120,818 "
58939,ddominguez,2015/30882,AT1F233832,ATPOS011_556D6614_15200,/,/,MOT084,CEDULA DE CIUDADANIA,45536933,SUSAN STRUSBERG CASTAÑEDA,19/08/2015,19/08/2015,EFECTIVO,CIA EXT. 50%,EXTERNA,6/2/15,C29,"$ 322,180 ","$ 120,818 ",$ 0 ,$ 0 ,"$ 120,818 "
58940,tangarita,2015/30883,AM1F042862,SSS00001_508D627C_02800,/,/,DGW421,CEDULA DE CIUDADANIA,8687764,RAMON ENRIQUE ANGULO RODELO  ,19/08/2015,18/08/2015,EFECTIVO,CIA EXT. 25%,EXTERNA,10/28/12,C29,"$ 283,350 ","$ 159,384 ",$ 0 ,$ 0 ,"$ 159,384 "
58941,tangarita,2015/30860,AT1F215442,ATSUS004_54BA8009_02700,/,/,XVX542,CEDULA DE CIUDADANIA,13814333,ANSELMO DELGADO HERRERA,19/08/2015,19/08/2015,EFECTIVO,CIA EXT. 50%,EXTERNA,1/17/15,C29,"$ 322,180 ","$ 120,818 ",$ 0 ,$ 0 ,"$ 120,818 "
58942,ygarcia,2015/30884,AT1F073541,ATCCS003_50CE4B24_17900,/,/,FHI409,CEDULA DE CIUDADANIA,43087832,MARIA TERESITA MOLINA ESCALANTE,19/08/2015,14/08/2015,EFECTIVO,PAGO TOTAL,NINGUNO,12/16/12,C29,"$ 283,350 ","$ 283,350 ",$ 0 ,$ 0 ,"$ 283,350 "
58943,tangarita,2015/30885,AT1F242481,ATMOS001_55C62AA8_19700,/,/,MXO611,CEDULA DE CIUDADANIA,72127123,ROBERTO JOSE COLLANTE SANTIAGO,19/08/2015,19/08/2015,EFECTIVO,CIA EXT. 50%,EXTERNA,8/8/15,C29,"$ 322,180 ","$ 120,818 ",$ 0 ,$ 0 ,"$ 120,818 "
58944,ygarcia,2015/30886,AT1F205192,ATSUS004_548B8DC5_18200,/,/,KKS413,CEDULA DE CIUDADANIA,12435934,ZAID YUSSEFF DEL CAIRO JIMENEZ,19/08/2015,28/07/2015,EFECTIVO,CIA EXT. 25%,EXTERNA,12/13/14,C29,"$ 308,000 ","$ 173,250 ",$ 0 ,$ 0 ,"$ 173,250 "
58945,ygarcia,2015/30887,AT1F239722,ATMLRS01_55A9E9AF_00200,/,/,MXN792,CEDULA DE CIUDADANIA,73127287,ANTONIO DE JESUS PEREZ KARDUSS,19/08/2015,14/08/2015,EFECTIVO,CIA EXT. 50%,EXTERNA,7/18/15,C29,"$ 322,180 ","$ 120,818 ",$ 0 ,$ 0 ,"$ 120,818 "
58946,tangarita,2015/30888,AT1F240757,ATJAS006_55B11031_00200,/,/,DGS641,CEDULA DE CIUDADANIA,16670222,MARCO MEDINA TROMBA,19/08/2015,19/08/2015,EFECTIVO,CIA EXT. 50%,EXTERNA,7/23/15,C29,"$ 322,180 ","$ 120,818 ",$ 0 ,$ 0 ,"$ 120,818 "
58947,ddominguez,2015/30889,AT1F229818,ATMLRS01_553A3C8F_05300,/,/,SYC95C,CEDULA DE CIUDADANIA,1129572404,MARSHIO JACOB MERCADO SOLANO,19/08/2015,19/08/2015,EFECTIVO,CIA EXT. 25%,EXTERNA,4/24/15,D04,"$ 644,360 ","$ 362,447 ",$ 0 ,$ 0 ,"$ 362,447 "
58948,ygarcia,2015/30890,AT1F238952,ATSRS009_559D8C13_35100,/,/,WFV627,CEDULA DE CIUDADANIA,79785981,NELSON VARGAS VARGAS,19/08/2015,19/08/2015,EFECTIVO,CIA EXT. 50%,EXTERNA,7/8/15,C29,"$ 322,180 ","$ 120,818 ",$ 0 ,$ 0 ,"$ 120,818 "
58949,ygarcia,2015/30891,AT1F229140,ATBAS005_553245BC_18200,/,/,EJC494,CEDULA DE CIUDADANIA,63449523,LUZ ELENA MUÑOZ PEÑA,19/08/2015,24/06/2015,EFECTIVO,CIA EXT. 50%,EXTERNA,4/18/15,C29,"$ 322,180 ","$ 120,818 ",$ 0 ,$ 0 ,"$ 120,818 "
58950,ygarcia,2015/30892,AT1F242544,ATMOS001_55C77466_01100,/,/,KHX791,CEDULA DE CIUDADANIA,8751040,EDGARDO ROBERTO ROSALES MALDONADO,19/08/2015,19/08/2015,EFECTIVO,CIA EXT. 50%,EXTERNA,8/9/15,C29,"$ 322,180 ","$ 120,818 ",$ 0 ,$ 0 ,"$ 120,818 "
58951,wbarrospaez,2015/30893,AT1F019417,SSS00004_4F9CE4A3_00300,ATR15482,/,FAN371,CEDULA DE CIUDADANIA,1017139335,JOHN JAIRO VILLEGAS VILLALBA,19/08/2015,19/08/2015,EFECTIVO,PAGO TOTAL,NINGUNO,4/29/12,C29,"$ 283,350 ","$ 283,350 ",$ 0 ,$ 0 ,"$ 283,352 "
58952,wbarrospaez,2015/30894,08634001000006473371,ATBAS005_5298538B_38000,ATR147940,/,FAN371,CEDULA DE CIUDADANIA,1017139335,JOHN JAIRO VILLEGAS VILLALBA,19/08/2015,19/08/2015,EFECTIVO,PAGO TOTAL,NINGUNO,11/29/13,C29,"$ 294,750 ","$ 294,750 ",$ 0 ,$ 0 ,"$ 294,750 "
58953,ygarcia,2015/30895,AT1F183121,ATMLS001_53AF283C_15600,/,/,JJE01C,CEDULA DE CIUDADANIA,1103101426,RAUL ALBERTO ALZATE GOMEZ,19/08/2015,19/08/2015,EFECTIVO,CIA EXT. 50%,EXTERNA,6/28/14,C29,"$ 308,000 ","$ 115,500 ",$ 0 ,$ 0 ,"$ 115,500 "
58954,ygarcia,2015/30896,AT1F202525,ATCCS003_547B2CAF_01500,/,/,UVO877,CEDULA DE CIUDADANIA,77031397,LUIS EDUARDO VANEGAS RUIZ,19/08/2015,19/08/2015,EFECTIVO,CIA EXT. 50%,EXTERNA,11/30/14,C29,"$ 308,000 ","$ 115,500 ",$ 0 ,$ 0 ,"$ 115,500 "
58955,ygarcia,2015/30897,AT1F221725,ATCCS003_54DF2B75_21900,/,/,GNL522,CEDULA DE CIUDADANIA,9099835,LUIS FERNANDO MARRUGO PEREZ,19/08/2015,19/08/2015,EFECTIVO,CIA EXT. 25%,EXTERNA,2/14/15,C29,"$ 322,180 ","$ 181,226 ",$ 0 ,$ 0 ,"$ 181,226 "
58956,tangarita,2015/30898,AT1F220111,ATSUS004_54E4EEDF_00300,/,/,RCZ198,CEDULA DE CIUDADANIA,19199698,JORGE ELIECER RAMOS RUEDA,19/08/2015,14/08/2015,EFECTIVO,CIA EXT. 50%,EXTERNA,2/18/15,C29,"$ 322,180 ","$ 120,818 ",$ 0 ,$ 0 ,"$ 120,818 "
58957,tangarita,2015/30899,AT1F221507,ATBOS008_54F5D7BE_02600,/,/,USD993,CEDULA DE CIUDADANIA,45576516,PATRICIA ELENA BAÑOS MENDOZA,19/08/2015,19/08/2015,EFECTIVO,CIA EXT. 50%,EXTERNA,3/3/15,C29,"$ 322,180 ","$ 120,818 ",$ 0 ,$ 0 ,"$ 120,818 "
58958,wbarrospaez,2015/30900,AT1F164224,ATSBS001_533D1B78_01300,/,/,QHJ104,CEDULA DE CIUDADANIA,8573141,ALFREDO ISAC GUZMAN JIMENEZ,19/08/2015,14/08/2015,EFECTIVO,CIA EXT. 50%,EXTERNA,4/3/14,C29,"$ 308,000 ","$ 115,500 ",$ 0 ,$ 0 ,"$ 115,500 "
58959,ddominguez,2015/30901,AT1F171908,ATSUS004_536A4D23_04500,/,/,SJK693,CEDULA DE CIUDADANIA,16744481,JUAN CARLOS FERNANDEZ ORDOEZ,19/08/2015,19/08/2015,EFECTIVO,CIA EXT. 50%,EXTERNA,5/7/14,C29,"$ 308,000 ","$ 115,500 ",$ 0 ,$ 0 ,"$ 115,500 "
58960,wbarrospaez,2015/30902,AT1F219020,ATSBS001_54EE3BFB_23800,/,/,QHJ104,CEDULA DE CIUDADANIA,8573141,ALFREDO ISAC GUZMAN JIMENEZ,19/08/2015,14/08/2015,EFECTIVO,CIA EXT. 50%,EXTERNA,2/25/15,C29,"$ 322,180 ","$ 120,818 ",$ 0 ,$ 0 ,"$ 120,818 "
58961,tangarita,2015/30903,AT1F210026,ATSUS004_54ABE927_01100,/,/,USD993,CEDULA DE CIUDADANIA,45576516,PATRICIA ELENA BAÑOS MENDOZA,19/08/2015,19/08/2015,EFECTIVO,CIA EXT. 50%,EXTERNA,1/6/15,C29,"$ 322,180 ","$ 120,818 ",$ 0 ,$ 0 ,"$ 120,818 "
58962,tangarita,2015/30904,AT1F214650,ATSBS001_54C73C3F_00900,/,/,USD993,CEDULA DE CIUDADANIA,45576516,PATRICIA ELENA BAÑOS MENDOZA,19/08/2015,19/08/2015,EFECTIVO,CIA EXT. 50%,EXTERNA,1/27/15,C29,"$ 322,180 ","$ 120,818 ",$ 0 ,$ 0 ,"$ 120,818 "
58963,tangarita,2015/30905,AT1F227145,ATSRS009_5526C87B_06600,/,/,USD993,CEDULA DE CIUDADANIA,45576516,PATRICIA ELENA BAÑOS MENDOZA,19/08/2015,19/08/2015,EFECTIVO,CIA EXT. 50%,EXTERNA,4/9/15,C29,"$ 322,180 ","$ 120,818 ",$ 0 ,$ 0 ,"$ 120,818 "
58964,wbarrospaez,2015/30906,AT1F032545,SSS00007_4FDB3DD9_15000,ATR23288,/,BCU267,CEDULA DE CIUDADANIA,88206376,JAVIER AUGUSTO PRADA URIBE,19/08/2015,19/08/2015,EFECTIVO,PAGO TOTAL,NINGUNO,6/15/12,C29,"$ 283,350 ","$ 283,350 ",$ 0 ,$ 0 ,"$ 283,352 "
58965,wbarrospaez,2015/30907,AT1F030397,SSS00008_4FD9BCAB_15000,ATR22577,/,BCU267,CEDULA DE CIUDADANIA,88206376,JAVIER AUGUSTO PRADA URIBE,19/08/2015,19/08/2015,EFECTIVO,PAGO TOTAL,NINGUNO,6/14/12,C29,"$ 283,350 ","$ 283,350 ",$ 0 ,$ 0 ,"$ 283,352 "
58966,wbarrospaez,2015/30909,AT1F101761,ATMLRS02_51547362_32900,/,/,SVG97A,CEDULA DE CIUDADANIA,72151545,GUIDO CESAR DE CASTRO BARRIOS,19/08/2015,18/08/2015,EFECTIVO,CIA EXT. 50%,EXTERNA,3/28/13,C29,"$ 294,750 ","$ 110,531 ",$ 0 ,$ 0 ,"$ 110,531 "
58967,wbarrospaez,2015/30910,AT1F111971,ATMLRS02_518BF559_22900,/,/,SVG97A,CEDULA DE CIUDADANIA,72151545,GUIDO CESAR DE CASTRO BARRIOS,19/08/2015,18/08/2015,EFECTIVO,CIA EXT. 50%,EXTERNA,5/9/13,C29,"$ 294,750 ","$ 110,531 ",$ 0 ,$ 0 ,"$ 110,531 "
58968,wbarrospaez,2015/30911,08634001000006121832,ATMLRS02_521F8382_27900,/,/,SVG97A,CEDULA DE CIUDADANIA,72151545,GUIDO CESAR DE CASTRO BARRIOS,19/08/2015,18/08/2015,EFECTIVO,CIA EXT. 50%,EXTERNA,8/29/13,C29,"$ 294,750 ","$ 110,531 ",$ 0 ,$ 0 ,"$ 110,531 "
58969,tangarita,2015/30912,08634001000006473246,ATSUS004_5290CAAD_03100,/,/,STY209,CEDULA DE CIUDADANIA,71215436,WALDIMIR HIGUITA LOPEZ,19/08/2015,19/08/2015,EFECTIVO,CIA EXT. 50%,EXTERNA,11/23/13,C29,"$ 294,750 ","$ 110,531 ",$ 0 ,$ 0 ,"$ 110,531 "
58970,wbarrospaez,2015/30914,08634001000006470073,ATMLRS02_52853141_00900,/,/,SVG97A,CEDULA DE CIUDADANIA,72151545,GUIDO CESAR DE CASTRO BARRIOS,19/08/2015,18/08/2015,EFECTIVO,CIA EXT. 50%,EXTERNA,11/14/13,D04,"$ 589,500 ","$ 221,063 ",$ 0 ,$ 0 ,"$ 221,063 "
58971,tangarita,2015/30915,08634001000006122201,ATMLRS02_5218A318_10900,/,/,FLO03,CEDULA DE CIUDADANIA,71215436,WALDIMIR HIGUITA LOPEZ,19/08/2015,19/08/2015,EFECTIVO,CIA EXT. 50%,EXTERNA,8/24/13,C29,"$ 294,750 ","$ 110,531 ",$ 0 ,$ 0 ,"$ 110,531 "
58972,wbarrospaez,2015/30916,08634001000006068206,ATMLS001_51EE04E6_25900,/,/,TDU269,CEDULA DE CIUDADANIA,8701802,JULIO CESAR JULIAO DIAZ /,19/08/2015,18/08/2015,EFECTIVO,CIA EXT. 50%,EXTERNA,7/23/13,C29,"$ 294,750 ","$ 110,531 ",$ 0 ,$ 0 ,"$ 110,531 "
58973,wbarrospaez,2015/30917,AT1F241292,ATBAS005_55B85DBB_25100,/,/,SRM014,CEDULA DE CIUDADANIA,91235883,JOSE LUIS ORTIZ GARCIA,19/08/2015,18/05/2015,EFECTIVO,CIA EXT. 50%,EXTERNA,7/29/15,C29,"$ 322,180 ","$ 120,818 ",$ 0 ,$ 0 ,"$ 120,818 "
58974,wbarrospaez,2015/30918,AT1F189748,ATMLRS02_53F6E43A_05600,/,/,KMU159,CEDULA DE CIUDADANIA,32870496,MILENA TERESA MORALES VILLALOBOS,19/08/2015,18/08/2015,EFECTIVO,CIA EXT. 50%,EXTERNA,8/22/14,C32,"$ 308,000 ","$ 115,500 ",$ 0 ,$ 0 ,"$ 115,500 "
58975,wbarrospaez,2015/30919,08634001000006466679,ATSBS001_52743301_04600,/,/,DHM310,CEDULA DE CIUDADANIA,85484685,HUGO ALBERTO GIRALDO ZULUAGA,19/08/2015,18/08/2015,EFECTIVO,CIA EXT. 25%,EXTERNA,11/1/13,C29,"$ 294,750 ","$ 165,797 ",$ 0 ,$ 0 ,"$ 165,797 "
58976,wbarrospaez,2015/30920,08634001000006121819,ATMLRS02_521DFE6D_19500,/,/,MUE80B,CEDULA DE CIUDADANIA,72204115,MARCO ANTONIO SOTO GUTIERREZ,19/08/2015,18/08/2015,EFECTIVO,CIA EXT. 50%,EXTERNA,8/28/13,D04,"$ 589,500 ","$ 221,063 ",$ 0 ,$ 0 ,"$ 221,063 "
58977,wbarrospaez,2015/30921,AT1F233486,ATMLRS01_5565ACAE_05800,/,/,BFK253,CEDULA DE CIUDADANIA,1045686349,DIEGO ARMANDO CAICEDO GUERRA,19/08/2015,14/08/2015,EFECTIVO,CIA EXT. 50%,EXTERNA,5/27/15,C29,"$ 322,180 ","$ 120,818 ",$ 0 ,$ 0 ,"$ 120,818 "
58978,ygarcia,2015/30922,AT1F226831,ATMLRS01_551E59DD_15800,/,/,GKL25C,CEDULA DE CIUDADANIA,34910125,ROSIRIS LEOCADIA GARCES DE MENDOZA,19/08/2015,19/08/2015,EFECTIVO,CIA EXT. 50%,EXTERNA,4/3/15,C29,"$ 322,180 ","$ 120,818 ",$ 0 ,$ 0 ,"$ 120,818 "
58979,ygarcia,2015/30923,AT1F232952,ATMLRS02_55620AB2_06700,/,/,GKL25C,CEDULA DE CIUDADANIA,34910125,ROSIRIS LEOCADIA GARCES DE MENDOZA,19/08/2015,19/08/2015,EFECTIVO,CIA EXT. 50%,EXTERNA,5/24/15,C29,"$ 322,180 ","$ 120,818 ",$ 0 ,$ 0 ,"$ 120,818 "
58980,ygarcia,2015/30924,AT1F178748,ATMLRS01_539D82D6_38700,/,/,GKL25C,CEDULA DE CIUDADANIA,34910125,ROSIRIS LEOCADIA GARCES DE MENDOZA,19/08/2015,19/08/2015,EFECTIVO,CIA EXT. 50%,EXTERNA,6/15/14,C29,"$ 308,000 ","$ 115,500 ",$ 0 ,$ 0 ,"$ 115,500 "
58981,tangarita,2015/30925,AT1F201858,ATCCS003_547444CA_01000,ATF2015010750,/,TDK819,CEDULA DE CIUDADANIA,19231438,JESUS ROGERIO ARDILA SANTANA,19/08/2015,18/08/2015,SIMIT,COBRO COACTIVO,NINGUNO,11/25/14,C29,"$ 308,000 ","$ 308,000 ","$ 33,179 ","$ 45,430 ","$ 386,609 "
58982,tangarita,2015/30926,AT1F050866,SSS00004_50477E93_04700,ATR34496,MATL00038201,TDS639,CEDULA DE CIUDADANIA,19336602,GERARDO URREA CABUYA,19/08/2015,18/08/2015,SIMIT,COBRO COACTIVO,NINGUNO,9/5/12,C29,"$ 283,350 ","$ 283,350 ","$ 285,975 ","$ 82,951 ","$ 652,276 "
58983,tangarita,2015/30927,AT1F191252,ATBAS005_54073157_04400,ATF2014044833,/,WFJ785,CEDULA DE CIUDADANIA,1022358284,WILMER ARLEY BARRETO VARGAS,19/08/2015,18/08/2015,SIMIT,COBRO COACTIVO,NINGUNO,9/3/14,C29,"$ 308,000 ","$ 308,000 ","$ 54,769 ","$ 45,430 ","$ 408,199 "
58984,tangarita,2015/30928,AT1F080066,ATBAS005_50E59ED7_35100,ATR76107,MATL00063577,BGU458,CEDULA DE CIUDADANIA,36720078,LIZYAN MERCEDES HENRIQUEZ LOPESIERRA,19/08/2015,18/08/2015,SIMIT,COBRO COACTIVO,NINGUNO,1/3/13,C29,"$ 294,750 ","$ 294,750 ","$ 182,436 ","$ 73,688 ","$ 550,874 "
58985,tangarita,2015/30929,AT1F111520,ATCCS003_5187573A_25300,ATR126145,MATL00100426,CFU432,CEDULA DE CIUDADANIA,6430182,CARLOS ENRIQUE ZULUAGA VALENCIA,19/08/2015,18/08/2015,SIMIT,COBRO COACTIVO,NINGUNO,5/6/13,C29,"$ 294,750 ","$ 294,750 ","$ 165,061 ","$ 73,688 ","$ 533,499 "
58986,tangarita,2015/30930,AT1F156013,ATSUS004_5301CD38_03200,ATR162412,MATL00101586,SRM171,NIT,860007660,HELM BANK SA  ,19/08/2015,18/08/2015,SIMIT,PAGO TOTAL,NINGUNO,2/17/14,C29,"$ 308,000 ","$ 308,000 ",$ 0 ,$ 0 ,"$ 308,000 "
58987,tangarita,2015/30931,AT1F195534,ATMLRS02_53E8AD6B_14300,ATF2014046897,/,ADS53D,CEDULA DE CIUDADANIA,1113527070,STEPHANNY CARABALI COLONIA,19/08/2015,18/08/2015,SIMIT,COBRO COACTIVO,NINGUNO,8/11/14,C29,"$ 308,000 ","$ 308,000 ","$ 50,464 ","$ 45,430 ","$ 403,894 "
58988,tangarita,2015/30932,08634001000006119668,ATCCS003_520F1A76_07600,ATR117853,MATL00081369,SRJ913,CEDULA DE CIUDADANIA,79807191,FABIAN LOZANO BARRERA,19/08/2015,18/08/2015,SIMIT,COBRO COACTIVO,NINGUNO,8/17/13,C29,"$ 294,750 ","$ 294,750 ","$ 138,393 ","$ 73,688 ","$ 506,831 "
58989,tangarita,2015/30933,AT1F209886,ATSUS004_54A678C9_02300,ATF2015013029,/,CFU432,CEDULA DE CIUDADANIA,6430182,CARLOS ENRIQUE ZULUAGA VALENCIA,19/08/2015,18/08/2015,SIMIT,COBRO COACTIVO,NINGUNO,1/2/15,C29,"$ 322,180 ","$ 322,180 ","$ 32,907 ","$ 47,522 ","$ 402,609 "
58990,tangarita,2015/30934,AT1F049360,SSS00006_4F7A2683_03300,ATR30987,MATL00015058,TDS639,CEDULA DE CIUDADANIA,19336602,GERARDO URREA CABUYA,19/08/2015,18/08/2015,SIMIT,COBRO COACTIVO,NINGUNO,4/2/12,C29,"$ 283,350 ","$ 283,350 ","$ 273,706 ","$ 78,238 ","$ 635,294 "
58991,tangarita,2015/30935,AT1F241479,ATCCS010_55BCC516_00500,/,/,IAU237,CEDULA DE CIUDADANIA,43985192,LINA MARIA ZULETA LOPEZ,19/08/2015,18/08/2015,SIMIT,CIA EXT. 50%,NINGUNO,8/1/15,C29,"$ 322,180 ","$ 120,818 ",$ 0 ,$ 0 ,"$ 120,818 "
58992,tangarita,2015/30936,AT1F241736,ATCCS010_55BDB2E8_01800,/,/,ZYM900,NIT,860034604,AUTOMAYOR S A  ,19/08/2015,18/08/2015,SIMIT,PAGO TOTAL,NINGUNO,8/2/15,C29,"$ 322,180 ","$ 322,180 ",$ 0 ,$ 0 ,"$ 322,180 "
58993,tangarita,2015/30937,AT1F185055,ATMLS001_53C73D33_21800,ATF2014033623,/,GXT71C,CEDULA DE CIUDADANIA,67006202,NORA ELCY QUINTERO BERMUDEZ,19/08/2015,18/08/2015,SIMIT,COBRO COACTIVO,NINGUNO,7/17/14,C29,"$ 308,000 ","$ 308,000 ","$ 73,767 ","$ 45,430 ","$ 427,197 "
58994,tangarita,2015/30938,08634001000006130341,ATSUS004_524F318D_07700,ATR161341,MATL00123262,SXH004,CEDULA DE CIUDADANIA,70978345,QUICENO     ALZATE      SERGIO      ANDRES /,19/08/2015,18/08/2015,SIMIT,PAGO TOTAL,NINGUNO,10/4/13,C29,"$ 294,750 ","$ 294,750 ",$ 0 ,$ 0 ,"$ 294,750 "
58995,tangarita,2015/30939,AT1F241816,ATPOS011_55BCBD9C_19000,/,/,ZZU494,CEDULA DE CIUDADANIA,80817814,JORGE ANIBAL CAMARGO CAMARGO,19/08/2015,18/08/2015,SIMIT,CIA EXT. 50%,NINGUNO,8/1/15,C29,"$ 322,180 ","$ 120,818 ",$ 0 ,$ 0 ,"$ 120,818 "
58996,tangarita,2015/30940,AT1F241868,ATBAS005_55BCB039_00200,/,/,ZZU494,CEDULA DE CIUDADANIA,80817814,JORGE ANIBAL CAMARGO CAMARGO,19/08/2015,18/08/2015,SIMIT,CIA EXT. 50%,NINGUNO,8/1/15,C29,"$ 322,180 ","$ 120,818 ",$ 0 ,$ 0 ,"$ 120,818 "
58997,tangarita,2015/30941,08634001000006472022,ATMLS001_528E1F36_00010,ATR161009,MATL00108159,RLZ708,NIT,8605066881,C.I. GRODCO S EN C A INGENIEROS CIVILES /,19/08/2015,18/08/2015,SIMIT,PAGO TOTAL,NINGUNO,11/21/13,C29,"$ 294,750 ","$ 294,750 ",$ 0 ,$ 0 ,"$ 294,750 "
58998,tangarita,2015/30942,AT1F242014,ATMLS001_55C47274_04000,/,/,MXK359,CEDULA DE CIUDADANIA,8705862,ERNESTO GABRIEL PINO VARANI,19/08/2015,18/08/2015,SIMIT,CIA EXT. 50%,NINGUNO,8/7/15,C29,"$ 322,180 ","$ 120,818 ",$ 0 ,$ 0 ,"$ 120,818 "
58999,wbarrospaez,2015/330,AT1F175221,ATMLRS02_5380E75B_15200,ATF2014025030,MATL00103292,DBQ24D,CEDULA DE CIUDADANIA,1043872719,ELIANA PATRICIA BARCELO SANDOVAL,19/08/2015,19/08/2015,EFECTIVO,EN ACUERDO DE PAGO,PAGO ACUERDO: 201556 CUOTA NRO: 2,5/24/14,D04,"$ 616,000 ","$ 91,830 ","$ 11,769 ",$ 0 ,"$ 103,600 "
59000,tangarita,2015/30943,AT1F169637,ATBAS005_535CDCF0_10500,/,/,BPV892,NIT,860007660,HELM BANK SA  ,19/08/2015,18/08/2015,SIMIT,PAGO TOTAL,NINGUNO,4/27/14,C29,"$ 308,000 ","$ 308,000 ",$ 0 ,$ 0 ,"$ 308,000 "
59001,tangarita,2015/30944,AT1F073291,ATBAS005_50D194A3_75300,ATR112886,/,DCY349,CEDULA DE CIUDADANIA,79753772,MAYORGA LANCHEROS PEDRO ALIRIO /,19/08/2015,18/08/2015,SIMIT,COBRO COACTIVO,NINGUNO,12/19/12,C29,"$ 283,350 ","$ 283,350 ","$ 163,811 ","$ 70,838 ","$ 517,999 "
59002,tangarita,2015/30945,AT1F217196,ATBAS005_54D82975_00100,/,/,MXO332,NIT,8600076603,HELM BANK SA  ,19/08/2015,18/08/2015,SIMIT,PAGO TOTAL,NINGUNO,2/9/15,C29,"$ 322,180 ","$ 322,180 ",$ 0 ,$ 0 ,"$ 322,180 "
59003,tangarita,2015/30946,AT1F196387,ATBAS005_5439C794_10500,ATF2015000104,/,BEE989,CEDULA DE CIUDADANIA,1098621003,JHON HERNEY GAMBOA PORTILLA,19/08/2015,18/08/2015,SIMIT,COBRO COACTIVO,NINGUNO,10/12/14,C29,"$ 308,000 ","$ 308,000 ","$ 49,605 ","$ 45,430 ","$ 403,035 "
59004,tangarita,2015/30947,AT1F242601,ATMOS001_55C88982_02100,/,/,HXQ230,CEDULA DE CIUDADANIA,15206932,OMAR NAGIB KARAMEDDINE KHARFAN,19/08/2015,18/08/2015,SIMIT,CIA EXT. 50%,NINGUNO,8/10/15,C29,"$ 322,180 ","$ 120,818 ",$ 0 ,$ 0 ,"$ 120,818 "
59005,tangarita,2015/30948,08634001000006470007,ATMLS001_527F01DC_07200,ATR137174,MATL00092843,ZDL30C,CEDULA DE CIUDADANIA,41391157,ROSA ELENA ACERO,19/08/2015,18/08/2015,SIMIT,COBRO COACTIVO,NINGUNO,11/10/13,C29,"$ 294,750 ","$ 294,750 ","$ 121,175 ","$ 73,688 ","$ 489,613 "
59006,tangarita,2015/30949,AT1F242961,ATPOS011_55C10042_40600,/,/,TEW062,CEDULA DE CIUDADANIA,9636290,MILTON HORACIO TENJO PACHECO,19/08/2015,18/08/2015,SIMIT,CIA EXT. 50%,NINGUNO,8/4/15,C29,"$ 322,180 ","$ 120,818 ",$ 0 ,$ 0 ,"$ 120,818 "
59007,tangarita,2015/30950,AT1F212546,ATJAS007_54AFE463_14400,ATF2015009006,/,HJS200,CEDULA DE CIUDADANIA,19372165,CELIAR DE JESUS NIÑO BLANCO,19/08/2015,18/08/2015,SIMIT,COBRO COACTIVO,NINGUNO,1/9/15,C29,"$ 322,180 ","$ 322,180 ","$ 36,290 ","$ 47,522 ","$ 405,992 "
59008,tangarita,2015/30951,AT1F243508,ATMOS001_55C5CFE1_08600,/,/,GAW063,NIT,800141644,MINISTERIO DE DEFENSA ARMADA NACIONAL  ,19/08/2015,18/08/2015,SIMIT,CIA EXT. 50%,NINGUNO,8/8/15,C29,"$ 322,180 ","$ 120,818 ",$ 0 ,$ 0 ,"$ 120,818 "
59009,tangarita,2015/30952,AT1F243918,ATMLRS02_55C36776_00200,/,/,WGV100,NIT,900160091,FSCR INGENIERIA SAS  ,19/08/2015,18/08/2015,SIMIT,CIA EXT. 50%,NINGUNO,8/6/15,C29,"$ 322,180 ","$ 120,818 ",$ 0 ,$ 0 ,"$ 120,818 "
59010,tangarita,2015/30953,AT1F201206,ATCCS003_546F0B8E_01700,ATF2015004830,/,KHN013,CEDULA DE CIUDADANIA,25897327,CLARA DEL CARMEN PATERNINA LOPEZ,19/08/2015,18/08/2015,SIMIT,COBRO COACTIVO,NINGUNO,11/21/14,C29,"$ 308,000 ","$ 308,000 ","$ 39,876 ","$ 45,430 ","$ 393,306 "
59011,tangarita,2015/30954,AT1F182901,ATBAS005_53ADAB89_43600,ATF2014038414,MATL00119162,YOL12C,CEDULA DE CIUDADANIA,10782906,RICHARD ALFONSO SABALZA NEGRETE,19/08/2015,18/08/2015,SIMIT,COBRO COACTIVO,NINGUNO,6/27/14,C29,"$ 308,000 ","$ 308,000 ","$ 67,919 ","$ 77,000 ","$ 452,919 "
59012,tangarita,2015/30955,AT1F217079,ATJAS006_54D90856_00700,/,/,MSP728,NIT,860007660,HELM BANK SA  ,19/08/2015,18/08/2015,SIMIT,PAGO TOTAL,NINGUNO,2/9/15,C29,"$ 322,180 ","$ 322,180 ",$ 0 ,$ 0 ,"$ 322,180 "
59013,tangarita,2015/30956,AT1F218056,ATCCS003_54E3835F_23900,ATF2015014760,/,QIE377,CEDULA DE CIUDADANIA,26026934,OLGA CECILIA SOTO BEDOYA,19/08/2015,18/08/2015,SIMIT,COBRO COACTIVO,NINGUNO,2/17/15,C29,"$ 322,180 ","$ 322,180 ","$ 25,637 ","$ 47,522 ","$ 395,339 "
59014,tangarita,2015/30957,AT1F218418,ATSRS009_54DC2B9A_00100,/,/,WCS484,NIT,860007660,HELM BANK SA  ,19/08/2015,18/08/2015,SIMIT,PAGO TOTAL,NINGUNO,2/12/15,C29,"$ 322,180 ","$ 322,180 ",$ 0 ,$ 0 ,"$ 322,180 "
59015,tangarita,2015/30958,AT1F241241,ATSUS004_5532683D_01100,/,/,GLD333,CEDULA DE CIUDADANIA,10250330,VICTOR GABRIEL ARANGO MONTOYA,19/08/2015,18/08/2015,SIMIT,PAGO TOTAL,NINGUNO,4/18/15,C29,"$ 322,180 ","$ 322,180 ",$ 0 ,$ 0 ,"$ 322,180 "
59016,tangarita,2015/30959,AT1F217969,ATCCS003_54DD3460_01000,/,/,GNM799,NIT,860007660,HELM BANK SA  ,19/08/2015,18/08/2015,SIMIT,PAGO TOTAL,NINGUNO,2/12/15,C29,"$ 322,180 ","$ 322,180 ",$ 0 ,$ 0 ,"$ 322,180 "
59017,tangarita,2015/30960,AT1F218235,ATMLS001_54DEF9B5_13000,/,/,HGN873,NIT,860007660,HELM BANK SA  ,19/08/2015,18/08/2015,SIMIT,PAGO TOTAL,NINGUNO,2/14/15,C29,"$ 322,180 ","$ 322,180 ",$ 0 ,$ 0 ,"$ 322,180 "
59018,tangarita,2015/30961,AT1F244094,ATMOS001_55C38FEE_12900,/,/,SZM590,CEDULA DE CIUDADANIA,72143110,JAIRO MIGUEL TOVAR FERREIRA,19/08/2015,18/08/2015,SIMIT,CIA EXT. 50%,NINGUNO,8/6/15,C29,"$ 322,180 ","$ 120,818 ",$ 0 ,$ 0 ,"$ 120,818 "
59019,tangarita,2015/30962,AT1F221727,ATCCS003_54DF3792_22600,ATF2015026765,/,FBW603,CEDULA DE CIUDADANIA,45502049,VERNA CECILIA VEGA GALOFRE,19/08/2015,18/08/2015,SIMIT,COBRO COACTIVO,NINGUNO,2/14/15,C29,"$ 322,180 ","$ 322,180 ","$ 3,604 ","$ 47,522 ","$ 373,306 "
59020,tangarita,2015/30963,AT1F242024,ATMLS001_55C70FB7_04400,/,/,MXK359,CEDULA DE CIUDADANIA,8705862,ERNESTO GABRIEL PINO VARANI,19/08/2015,18/08/2015,SIMIT,CIA EXT. 50%,NINGUNO,8/9/15,C29,"$ 322,180 ","$ 120,818 ",$ 0 ,$ 0 ,"$ 120,818 "
59021,tangarita,2015/30964,AT1F241857,ATPOS002_55BCB980_06500,/,/,ZZU494,CEDULA DE CIUDADANIA,80817814,JORGE ANIBAL CAMARGO CAMARGO,19/08/2015,18/08/2015,SIMIT,CIA EXT. 50%,NINGUNO,8/1/15,C29,"$ 322,180 ","$ 120,818 ",$ 0 ,$ 0 ,"$ 120,818 "
59022,tangarita,2015/30965,AT1F228825,ATSUS004_552D4BEE_00900,ATF2015027904,/,SPO200,CEDULA DE CIUDADANIA,75069857,JUAN CARLOS GUTIERREZ CANO,19/08/2015,18/08/2015,SIMIT,COBRO COACTIVO,NINGUNO,4/14/15,C29,"$ 322,180 ","$ 322,180 ","$ 1,797 ","$ 47,522 ","$ 371,499 "
59023,tangarita,2015/30966,AT1F219124,ATSUS004_54F073D1_00600,/,/,TZM033,NIT,860007660,HELM BANK SA  ,19/08/2015,18/08/2015,SIMIT,PAGO TOTAL,NINGUNO,2/27/15,C29,"$ 322,180 ","$ 322,180 ",$ 0 ,$ 0 ,"$ 322,180 "
59024,tangarita,2015/30967,AT1F229238,ATBOS008_55362D06_03400,ATF2015027921,/,SPO200,CEDULA DE CIUDADANIA,75069857,JUAN CARLOS GUTIERREZ CANO,19/08/2015,18/08/2015,SIMIT,COBRO COACTIVO,NINGUNO,4/21/15,C29,"$ 322,180 ","$ 322,180 ","$ 1,797 ","$ 47,522 ","$ 371,499 "
59025,tangarita,2015/30968,AT1F229445,ATMLRS01_553A1608_04700,ATF2015027939,/,QAK917,CEDULA DE CIUDADANIA,17447134,YEISON ALEXANDER DIAZ FLOREZ,19/08/2015,18/08/2015,SIMIT,PAGO CON INTERES,NINGUNO,4/24/15,C29,"$ 322,180 ","$ 322,180 ","$ 1,797 ",$ 0 ,"$ 323,977 "
59026,tangarita,2015/30969,AT1F219555,ATBOS008_54EF0AC8_04400,/,/,WCR587,NIT,860007660,HELM BANK SA  ,19/08/2015,18/08/2015,SIMIT,PAGO TOTAL,NINGUNO,2/26/15,C29,"$ 322,180 ","$ 322,180 ",$ 0 ,$ 0 ,"$ 322,180 "
59027,tangarita,2015/30970,AT1F220338,ATCCS003_54E2744A_16100,ATF2015024300,/,TSH043,CEDULA DE CIUDADANIA,71316864,JOHN WILMAR VANEGAS BUSTAMANTE,19/08/2015,18/08/2015,SIMIT,COBRO COACTIVO,NINGUNO,2/16/15,C29,"$ 322,180 ","$ 322,180 ","$ 3,604 ","$ 47,522 ","$ 373,306 "
59028,tangarita,2015/30971,AT1F220582,ATCCS003_54EDC141_06100,ATF2015014517,/,BPZ014,CEDULA DE CIUDADANIA,45507247,NELLY DEL CARMEN POSADA RODRIGUEZ,19/08/2015,18/08/2015,SIMIT,COBRO COACTIVO,NINGUNO,2/25/15,C29,"$ 322,180 ","$ 322,180 ","$ 25,863 ","$ 47,522 ","$ 395,565 "
59029,tangarita,2015/30972,AT1F221046,ATPOS002_54F1C7B5_27100,/,/,DHM162,NIT,8600076603,HELM BANK SA  ,19/08/2015,18/08/2015,SIMIT,PAGO TOTAL,NINGUNO,2/28/15,C29,"$ 322,180 ","$ 322,180 ",$ 0 ,$ 0 ,"$ 322,180 "
59030,tangarita,2015/30973,AT1F221182,ATJAS007_54F626AA_00900,/,/,HDP000,NIT,860007660,HELM BANK SA  ,19/08/2015,18/08/2015,SIMIT,PAGO TOTAL,NINGUNO,3/3/15,C29,"$ 322,180 ","$ 322,180 ",$ 0 ,$ 0 ,"$ 322,180 "
59031,tangarita,2015/30974,AT1F221221,ATBOS008_54F100D5_02100,/,/,HBV027,NIT,860007660,HELM BANK SA  ,19/08/2015,18/08/2015,SIMIT,PAGO TOTAL,NINGUNO,2/27/15,C29,"$ 322,180 ","$ 322,180 ",$ 0 ,$ 0 ,"$ 322,180 "
59032,tangarita,2015/30975,AT1F239121,ATBAS005_55A136AE_05200,/,/,IEQ622,NIT,811011779,RENTING COLOMBIA SA  ,19/08/2015,18/08/2015,SIMIT,PAGO TOTAL,NINGUNO,7/11/15,C29,"$ 322,180 ","$ 322,180 ",$ 0 ,$ 0 ,"$ 322,180 "
59033,tangarita,2015/30976,AT1F221096,ATSRS009_54F10344_04700,/,/,HBV027,NIT,860007660,HELM BANK SA  ,19/08/2015,18/08/2015,SIMIT,PAGO TOTAL,NINGUNO,2/27/15,C29,"$ 322,180 ","$ 322,180 ",$ 0 ,$ 0 ,"$ 322,180 "
59034,tangarita,2015/30977,AT1F219104,ATCCS003_54EF5DCF_20200,/,/,DCC173,NIT,860007660,HELM BANK SA  ,19/08/2015,18/08/2015,SIMIT,PAGO TOTAL,NINGUNO,2/26/15,C29,"$ 322,180 ","$ 322,180 ",$ 0 ,$ 0 ,"$ 322,180 "
59035,tangarita,2015/30978,AT1F221108,ATSRS009_54F61C3F_00500,/,/,UYU267,NIT,800051334,HELM LEASING SA  ,19/08/2015,18/08/2015,SIMIT,PAGO TOTAL,NINGUNO,3/3/15,C29,"$ 322,180 ","$ 322,180 ",$ 0 ,$ 0 ,"$ 322,180 "
59036,tangarita,2015/30979,AT1F221147,ATSUS004_54F44951_04100,/,/,SLK377,NIT,860007660,HELM BANK SA  ,19/08/2015,18/08/2015,SIMIT,PAGO TOTAL,NINGUNO,3/2/15,C29,"$ 322,180 ","$ 322,180 ",$ 0 ,$ 0 ,"$ 322,180 "
59037,tangarita,2015/30980,AT1F221266,ATCCS003_54F1ADF7_43900,/,/,SZK990,NIT,860007660,HELM BANK SA  ,19/08/2015,18/08/2015,SIMIT,PAGO TOTAL,NINGUNO,2/28/15,C29,"$ 322,180 ","$ 322,180 ",$ 0 ,$ 0 ,"$ 322,180 "
59038,tangarita,2015/30981,AT1F220047,ATSUS004_54DECBDB_00400,/,/,VCV383,NIT,860007660,HELM BANK SA  ,19/08/2015,18/08/2015,SIMIT,PAGO TOTAL,NINGUNO,2/14/15,C29,"$ 322,180 ","$ 322,180 ",$ 0 ,$ 0 ,"$ 322,180 "
59039,tangarita,2015/30982,AT1F239186,ATPOS011_5532707F_06900,/,/,GLD333,CEDULA DE CIUDADANIA,10250330,VICTOR GABRIEL ARANGO MONTOYA,19/08/2015,18/08/2015,SIMIT,CIA EXT. 25%,NINGUNO,4/18/15,C29,"$ 322,180 ","$ 181,226 ",$ 0 ,$ 0 ,"$ 181,226 "
59040,tangarita,2015/30983,AT1F222282,ATBAS005_54FDD14B_03100,/,/,QHM086,NIT,8000513345,LEASING DE CREDITO  ,19/08/2015,18/08/2015,SIMIT,PAGO TOTAL,NINGUNO,3/9/15,C29,"$ 322,180 ","$ 322,180 ",$ 0 ,$ 0 ,"$ 322,180 "
59041,tangarita,2015/30984,AT1F230511,ATSBS001_5548FA57_17600,ATF2015028313,/,CVH685,CEDULA DE CIUDADANIA,79733023,JHON ALEXANDER PACHON RODRIGUEZ,19/08/2015,18/08/2015,SIMIT,PAGO CON INTERES,NINGUNO,5/5/15,C29,"$ 322,180 ","$ 322,180 ","$ 1,797 ",$ 0 ,"$ 323,977 "
59042,tangarita,2015/30985,AT1F222021,ATSUS004_54FC75F7_02000,/,/,SXJ349,NIT,860007660,HELM BANK SA  ,19/08/2015,18/08/2015,SIMIT,PAGO TOTAL,NINGUNO,3/8/15,C29,"$ 322,180 ","$ 322,180 ",$ 0 ,$ 0 ,"$ 322,180 "
59043,tangarita,2015/30986,AT1F222055,ATJAS006_54F9C1A9_00400,/,/,BTJ110,NIT,800051334,HELM LEASING SA  ,19/08/2015,18/08/2015,SIMIT,PAGO TOTAL,NINGUNO,3/6/15,C29,"$ 322,180 ","$ 322,180 ",$ 0 ,$ 0 ,"$ 322,180 "
59044,tangarita,2015/30987,AT1F222539,ATCCS003_54F946D9_03700,/,/,SNT670,NIT,860007660,HELM BANK SA  ,19/08/2015,18/08/2015,SIMIT,PAGO TOTAL,NINGUNO,3/6/15,C29,"$ 322,180 ","$ 322,180 ",$ 0 ,$ 0 ,"$ 322,180 "
59045,tangarita,2015/30988,AT1F223087,ATCCS010_55070D89_03400,/,/,MHZ398,NIT,8600076603,HELM BANK SA  ,19/08/2015,18/08/2015,SIMIT,PAGO TOTAL,NINGUNO,3/16/15,C29,"$ 322,180 ","$ 322,180 ",$ 0 ,$ 0 ,"$ 322,180 "
59046,tangarita,2015/30989,AT1F223138,ATJAS007_55057E45_00100,/,/,BPV892,NIT,860007660,HELM BANK SA  ,19/08/2015,18/08/2015,SIMIT,PAGO TOTAL,NINGUNO,3/15/15,C29,"$ 322,180 ","$ 322,180 ",$ 0 ,$ 0 ,"$ 322,180 "
59047,tangarita,2015/30990,AT1F223509,ATJAS006_550A57E8_00100,/,/,HDP000,NIT,860007660,HELM BANK SA  ,19/08/2015,18/08/2015,SIMIT,PAGO TOTAL,NINGUNO,3/19/15,C29,"$ 322,180 ","$ 322,180 ",$ 0 ,$ 0 ,"$ 322,180 "
59048,tangarita,2015/30991,AT1F223789,ATMLRS02_550FD893_05200,/,/,MHZ189,NIT,8600076603,HELM BANK SA  ,19/08/2015,18/08/2015,SIMIT,PAGO TOTAL,NINGUNO,3/23/15,C29,"$ 322,180 ","$ 322,180 ",$ 0 ,$ 0 ,"$ 322,180 "
59049,tangarita,2015/30992,AT1F232025,ATSBS001_5558865A_67500,ATF2015025182,/,CVH685,CEDULA DE CIUDADANIA,79733023,JHON ALEXANDER PACHON RODRIGUEZ,19/08/2015,18/08/2015,SIMIT,COBRO COACTIVO,NINGUNO,5/17/15,C29,"$ 322,180 ","$ 322,180 ","$ 3,604 ","$ 47,522 ","$ 373,306 "
59050,tangarita,2015/30993,AT1F223940,ATSRS009_550D500B_00500,/,/,DHN814,NIT,8600076603,HELM BANK SA  ,19/08/2015,18/08/2015,SIMIT,PAGO TOTAL,NINGUNO,3/21/15,C29,"$ 322,180 ","$ 322,180 ",$ 0 ,$ 0 ,"$ 322,180 "
59051,tangarita,2015/30994,AT1F224003,ATMLS001_5511975B_01100,/,/,HGN873,NIT,860007660,HELM BANK SA  ,19/08/2015,18/08/2015,SIMIT,PAGO TOTAL,NINGUNO,3/24/15,C29,"$ 322,180 ","$ 322,180 ",$ 0 ,$ 0 ,"$ 322,180 "
59052,tangarita,2015/30995,AT1F224248,ATBAS005_550B2D84_12700,/,/,TGK775,NIT,860007660,HELM BANK SA  ,19/08/2015,18/08/2015,SIMIT,PAGO TOTAL,NINGUNO,3/19/15,C29,"$ 322,180 ","$ 322,180 ",$ 0 ,$ 0 ,"$ 322,180 "
59053,tangarita,2015/30996,AT1F225071,ATCCS010_5514EF19_03900,ATF2015018450,/,TLN518,CEDULA DE CIUDADANIA,20290126,MARIA INES BARON DE BARRERO,19/08/2015,18/08/2015,SIMIT,COBRO COACTIVO,NINGUNO,3/27/15,C29,"$ 322,180 ","$ 322,180 ","$ 15,384 ","$ 47,522 ","$ 385,086 "
59054,tangarita,2015/30997,AT1F225233,ATJAS006_5512FF1F_00800,/,/,HSW458,NIT,860007660,HELM BANK SA  ,19/08/2015,18/08/2015,SIMIT,PAGO TOTAL,NINGUNO,3/25/15,C29,"$ 322,180 ","$ 322,180 ",$ 0 ,$ 0 ,"$ 322,180 "
59055,tangarita,2015/30998,AT1F225278,ATBAS005_5513D1F2_02100,ATF2015022108,/,XLC647,CEDULA DE CIUDADANIA,5577168,JORGE GALLEGO,19/08/2015,18/08/2015,SIMIT,COBRO COACTIVO,NINGUNO,3/26/15,C29,"$ 322,180 ","$ 322,180 ","$ 4,955 ","$ 47,522 ","$ 374,657 "
59056,tangarita,2015/30999,AT1F225726,ATJAS006_551919B3_00100,/,/,KAM981,NIT,860007660,HELM BANK SA  ,19/08/2015,18/08/2015,SIMIT,PAGO TOTAL,NINGUNO,3/30/15,C29,"$ 322,180 ","$ 322,180 ",$ 0 ,$ 0 ,"$ 322,180 "
59057,tangarita,2015/31000,AT1F240187,ATSRS009_55A9093B_00400,/,/,VLH358,CEDULA DE CIUDADANIA,8015882,WILMAR ALBERTO RUIZ ZAPATA,19/08/2015,18/08/2015,SIMIT,CIA EXT. 50%,NINGUNO,7/17/15,C29,"$ 322,180 ","$ 120,818 ",$ 0 ,$ 0 ,"$ 120,818 "
59058,tangarita,2015/31001,AT1F241586,ATBAS005_55BAB210_37900,/,/,SKZ105,CEDULA DE CIUDADANIA,1022923757,ALEJO PEREZ HERNANDEZ,19/08/2015,18/08/2015,SIMIT,CIA EXT. 50%,NINGUNO,7/30/15,C29,"$ 322,180 ","$ 120,818 ",$ 0 ,$ 0 ,"$ 120,818 "
59059,tangarita,2015/31002,AT1F227132,ATSRS009_5522645E_01400,ATF2015022712,/,BSZ899,CEDULA DE CIUDADANIA,1106394263,ZAMARA ALIETH VANESSA MARTINEZ ALVAREZ,19/08/2015,18/08/2015,SIMIT,COBRO COACTIVO,NINGUNO,4/6/15,C29,"$ 322,180 ","$ 322,180 ","$ 4,955 ","$ 47,522 ","$ 374,657 "
59060,tangarita,2015/31003,AT1F233511,ATMLRS02_5561AC5F_03500,ATF2015026376,/,ATV30A,CEDULA DE CIUDADANIA,39408067,LUCELY MARGARITA SOTO ARREDONDO,19/08/2015,18/08/2015,SIMIT,COBRO COACTIVO,NINGUNO,5/24/15,C29,"$ 322,180 ","$ 322,180 ","$ 3,604 ","$ 47,522 ","$ 373,306 "
59061,tangarita,2015/31004,AT1F234775,ATPOS011_5575E0E1_02400,/,/,BXT863,NIT,860059294,LEASING BANCOLOMBIA SA  ,19/08/2015,18/08/2015,SIMIT,PAGO TOTAL,NINGUNO,6/8/15,C29,"$ 322,180 ","$ 322,180 ",$ 0 ,$ 0 ,"$ 322,180 "
59062,tangarita,2015/31005,AT1F161266,ATSUS004_5328962B_00200,ATF2014012299,MATL00105706,HGN207,CEDULA DE CIUDADANIA,72003962,JAIRO JESUS SABAT TARUD,19/08/2015,18/08/2015,SIMIT,COBRO COACTIVO,NINGUNO,3/18/14,C29,"$ 308,000 ","$ 308,000 ","$ 99,088 ","$ 77,000 ","$ 484,088 "
59063,tangarita,2015/31006,AT1F219239,ATMLS001_54F2E074_03400,/,/,HXQ828,NIT,890903937,BANCO CORPBANCA COLOMBIA SA  ,19/08/2015,18/08/2015,SIMIT,PAGO TOTAL,NINGUNO,3/1/15,C29,"$ 322,180 ","$ 322,180 ",$ 0 ,$ 0 ,"$ 322,180 "
59064,tangarita,2015/31007,AT1F220608,ATCCS003_54EF0905_15800,/,/,WCR587,NIT,860007660,HELM BANK SA  ,19/08/2015,18/08/2015,SIMIT,PAGO TOTAL,NINGUNO,2/26/15,C29,"$ 322,180 ","$ 322,180 ",$ 0 ,$ 0 ,"$ 322,180 "
59065,tangarita,2015/31008,AT1F220647,ATCCS003_54F1CE44_45900,/,/,DHM162,NIT,8600076603,HELM BANK SA  ,19/08/2015,18/08/2015,SIMIT,PAGO TOTAL,NINGUNO,2/28/15,C29,"$ 322,180 ","$ 322,180 ",$ 0 ,$ 0 ,"$ 322,180 "
59066,tangarita,2015/31009,AT1F220889,ATCCS010_54F0644A_01000,/,/,WGI979,NIT,860007660,HELM BANK SA  ,19/08/2015,18/08/2015,SIMIT,PAGO TOTAL,NINGUNO,2/27/15,C29,"$ 322,180 ","$ 322,180 ",$ 0 ,$ 0 ,"$ 322,180 "
59067,tangarita,2015/31010,AT1F219322,ATBOS008_54F1CDD9_04200,/,/,DHM162,NIT,8600076603,HELM BANK SA  ,19/08/2015,18/08/2015,SIMIT,PAGO TOTAL,NINGUNO,2/28/15,C29,"$ 322,180 ","$ 322,180 ",$ 0 ,$ 0 ,"$ 322,180 "
59068,tangarita,2015/31011,AT1F235922,ATBAS005_55831925_05800,/,/,HXR611,NIT,811011779,RENTING COLOMBIA SA  ,19/08/2015,18/08/2015,SIMIT,PAGO TOTAL,NINGUNO,6/18/15,C29,"$ 322,180 ","$ 322,180 ",$ 0 ,$ 0 ,"$ 322,180 "
59069,tangarita,2015/31012,AT1F224476,ATMLRS02_550EB629_00300,/,/,NEK153,NIT,860007660,HELM BANK SA  ,19/08/2015,18/08/2015,SIMIT,PAGO TOTAL,NINGUNO,3/22/15,C29,"$ 322,180 ","$ 322,180 ",$ 0 ,$ 0 ,"$ 322,180 "
59070,tangarita,2015/31013,AT1F235283,ATJAS006_557D6C55_00900,/,/,HXR184,NIT,811011779,RENTING COLOMBIA SA  ,19/08/2015,18/08/2015,SIMIT,PAGO TOTAL,NINGUNO,6/14/15,C29,"$ 322,180 ","$ 322,180 ",$ 0 ,$ 0 ,"$ 322,180 "
59071,tangarita,2015/31014,AT1F230695,ATJAS006_5543F123_01000,ATF2015019277,/,MLQ433,CEDULA DE CIUDADANIA,43542880,BLANCA MERY RAMIREZ GOMEZ,19/08/2015,18/08/2015,SIMIT,COBRO COACTIVO,NINGUNO,5/1/15,C29,"$ 322,180 ","$ 322,180 ","$ 10,620 ","$ 47,522 ","$ 380,322 "
59072,tangarita,2015/31015,AT1F226556,ATJAS006_552127E5_00100,ATF2015022858,/,BZR995,CEDULA DE CIUDADANIA,22410339,CLARISSA DEL SOCORRO LAFAURIE GONZALEZ,19/08/2015,18/08/2015,SIMIT,COBRO COACTIVO,NINGUNO,4/5/15,C29,"$ 322,180 ","$ 322,180 ","$ 4,955 ","$ 47,522 ","$ 374,657 "
59073,tangarita,2015/31016,AT1F240842,ATBOS008_5592B848_13900,/,/,TDT740,CEDULA DE CIUDADANIA,22186871,BLANCA NUBIA ORREGO DE ORTIZ,19/08/2015,18/08/2015,SIMIT,PAGO TOTAL,NINGUNO,6/30/15,C29,"$ 322,180 ","$ 322,180 ",$ 0 ,$ 0 ,"$ 322,180 "
59074,tangarita,2015/31017,AT1F240983,ATSUS004_55B3BC5C_06700,/,/,IAU237,CEDULA DE CIUDADANIA,43985192,LINA MARIA ZULETA LOPEZ,19/08/2015,18/08/2015,SIMIT,CIA EXT. 25%,NINGUNO,7/25/15,C29,"$ 322,180 ","$ 181,226 ",$ 0 ,$ 0 ,"$ 181,226 "
59075,tangarita,2015/31018,AT1F236586,ATBAS005_55880E32_02600,/,/,SCG87D,NIT,900779446,MOTO FACIL RENTAL SAS  ,19/08/2015,18/08/2015,SIMIT,PAGO TOTAL,NINGUNO,6/22/15,C29,"$ 322,180 ","$ 322,180 ",$ 0 ,$ 0 ,"$ 322,180 "
59076,tangarita,2015/31019,AT1F237901,ATBAS005_558E354C_00700,/,/,SPL067,CEDULA DE CIUDADANIA,94277411,DIEGO FERNANDO URBANO GUAPACHE,19/08/2015,18/08/2015,SIMIT,PAGO TOTAL,NINGUNO,6/27/15,C29,"$ 322,180 ","$ 322,180 ",$ 0 ,$ 0 ,"$ 322,180 "
59077,tangarita,2015/31020,AT1F241092,ATSRS009_55B3C25A_17900,/,/,IAU237,CEDULA DE CIUDADANIA,43985192,LINA MARIA ZULETA LOPEZ,19/08/2015,18/08/2015,SIMIT,CIA EXT. 25%,NINGUNO,7/25/15,C29,"$ 322,180 ","$ 181,226 ",$ 0 ,$ 0 ,"$ 181,226 "
59078,tangarita,2015/31021,AT1F100926,ATMLRS02_51495821_26900,ATR120320,MATL00108393,SLG763,CEDULA DE CIUDADANIA,19399144,CARLOS JULIO PERDIGON ESCOBAR,19/08/2015,18/08/2015,SIMIT,COBRO COACTIVO,NINGUNO,3/20/13,C29,"$ 294,750 ","$ 294,750 ","$ 175,276 ","$ 73,688 ","$ 543,714 "
59079,tangarita,2015/31022,AT1F171339,ATSUS004_53644DF3_00600,ATF2014023458,MATL00117666,HGW531,CEDULA DE CIUDADANIA,4573899,JOSE ALDEMAR HENAO MEJIA,19/08/2015,18/08/2015,SIMIT,COBRO COACTIVO,NINGUNO,5/3/14,C29,"$ 308,000 ","$ 308,000 ","$ 86,363 ","$ 77,000 ","$ 471,363 "
59080,tangarita,2015/31023,08634001000006473588,ATMLRS01_52970D78_10400,ATR166278,MATL00124255,ZDL30C,CEDULA DE CIUDADANIA,41391157,ROSA ELENA ACERO,19/08/2015,18/08/2015,SIMIT,COBRO COACTIVO,NINGUNO,11/28/13,D04,"$ 589,500 ","$ 589,500 ","$ 225,080 ","$ 147,375 ","$ 961,955 "
59081,tangarita,2015/31024,AT1F211181,ATCCS003_54A22280_13200,ATF2015012352,/,HWL510,CEDULA DE CIUDADANIA,60250120,CARMEN CASTELLANOS SUAREZ,19/08/2015,18/08/2015,SIMIT,COBRO COACTIVO,NINGUNO,12/30/14,C29,"$ 308,000 ","$ 308,000 ","$ 31,459 ","$ 45,430 ","$ 384,889 "
59082,tangarita,2015/31025,AT1F171196,ATCCS003_53644FC5_13400,ATF2014022108,MATL00117667,HGW531,CEDULA DE CIUDADANIA,4573899,JOSE ALDEMAR HENAO MEJIA,19/08/2015,18/08/2015,SIMIT,COBRO COACTIVO,NINGUNO,5/3/14,C29,"$ 308,000 ","$ 308,000 ","$ 86,363 ","$ 77,000 ","$ 471,363 "
59083,tangarita,2015/31026,AT1F199203,ATSUS004_545C53FA_01400,ATF2015002522,/,GRF396,CEDULA DE CIUDADANIA,1088277208,CLAUDIA MILENA ROMERO GONZALEZ,19/08/2015,18/08/2015,SIMIT,COBRO COACTIVO,NINGUNO,11/7/14,C29,"$ 308,000 ","$ 308,000 ","$ 43,769 ","$ 45,430 ","$ 397,199 "
59084,tangarita,2015/31027,AT1F163896,ATSUS004_5337E084_02700,ATF2014016007,/,PAT13B,CEDULA DE CIUDADANIA,91523082,REINALDO BARRIOS JIMENEZ,19/08/2015,18/08/2015,SIMIT,COBRO COACTIVO,NINGUNO,3/30/14,C29,"$ 308,000 ","$ 308,000 ","$ 91,167 ","$ 45,430 ","$ 444,597 "
59085,ddominguez,2015/31028,AT1F209567,ATJAS007_54A68436_24100,/,/,HXL940,CEDULA DE CIUDADANIA,72136638,EDGAR ROJAS CRIADO,19/08/2015,12/08/2015,EFECTIVO,CIA EXT. 50%,EXTERNA,1/2/15,C29,"$ 322,180 ","$ 120,818 ",$ 0 ,$ 0 ,"$ 120,818 "
59086,ddominguez,2015/31029,AT1F231668,ATJAS007_554D2D89_00200,/,/,HXL940,CEDULA DE CIUDADANIA,72136638,EDGAR ROJAS CRIADO,19/08/2015,12/08/2015,EFECTIVO,CIA EXT. 50%,EXTERNA,5/8/15,C29,"$ 322,180 ","$ 120,818 ",$ 0 ,$ 0 ,"$ 120,818 "